Consulta e automação a base SECEX/MDiC
…
Em seguida crio a tabela de exportação resumida:

expresumida<-exp%>%
  group_by(MesAno, CO_NCM)%>%
  summarise(TotalExpMensal = sum(VL_FOB))

arrange(expresumida, desc(TotalExpMensal))

# A tibble: 62,312 x 3
# Groups:   MesAno [11]
   MesAno    CO_NCM TotalExpMensal
   <chr>      <int>          <dbl>
 1 4/2020  12019000     5030291654
 2 5/2020  12019000     4697672156
 3 6/2020  12019000     4295970483
 4 3/2020  12019000     3743233663
 5 7/2020  12019000     3458470960
 6 9/2020  26011100     2932977653
 7 10/2020 26011100     2641402530
 8 11/2020 26011100     2504606337
 9 2/2020  27090010     2316023766
10 8/2020  26011100     2254094790
# ... with 62,302 more rows
…
Então agrupo as exportações (em US$ FOB) por NCM: (O agruoamento é necessário por uma questão de limitação de processamento e memória)

#agrupa exp por ncm
expncm<-exp%>%
  group_by(CO_NCM)%>%
  summarise(Total_NCM = sum(VL_FOB))

arrange(expncm, desc(Total_NCM))

# A tibble: 7,686 x 2
     CO_NCM   Total_NCM
      <int>       <dbl>
 1 12019000 28482243596
 2 26011100 21358066850
 3 27090010 18028435885
 4 17011400  6703987065
 5  2023000  6083279666
 6 47032900  5212058854
 7 10059010  4935839068
 8  9011110  4430674111
 9 23040090  4371210763
10  2071400  3771652265
# ... with 7,676 more rows
…
Vamos ver como fica a classificação:

expncm<-expncm%>%
  select(-Total_NCM)

arrange(expncm,desc(TotExpNCM))

# A tibble: 7,686 x 3
     CO_NCM NO_NCM_POR                                                 TotExpNCM
      <int> <chr>                                                          <dbl>
 1 12019000 Soja, mesmo triturada, exceto para semeadura                 2.85e10
 2 26011100 Minérios de ferro e seus concentrados, exceto as piritas~    2.14e10
 3 27090010 Óleos brutos de petróleo                                     1.80e10
 4 17011400 Outros açúcares de cana                                      6.70e 9
 5  2023000 Carnes desossadas de bovino, congeladas                      6.08e 9
 6 47032900 Pastas químicas de madeira, à soda ou ao sulfato, exceto~    5.21e 9
 7 10059010 Milho em grão, exceto para semeadura                         4.94e 9
 8  9011110 Café não torrado, não descafeinado, em grão                  4.43e 9
 9 23040090 Bagaços e outros resíduos sólidos, da extração do óleo d~    4.37e 9
10  2071400 Pedaços e miudezas, comestíveis de galos/galinhas, conge~    3.77e 9
# ... with 7,676 more rows
…
Ou então poderíamos filtrar com base em diferentes strings de produtos:

expncmprodutos<-expncm%>%
  filter(grepl("soja", NO_NCM_POR ) | grepl("Soja", NO_NCM_POR) |
         grepl("milho", NO_NCM_POR ) | grepl("Milho", NO_NCM_POR) |
         grepl("açúcar", NO_NCM_POR ) | grepl("Açúcar", NO_NCM_POR))

expncmprodutos

# A tibble: 86 x 3
    CO_NCM NO_NCM_POR                                                  TotExpNCM
     <int> <chr>                                                           <dbl>
 1 4011010 Leite UHT (Ultra High Temperature), com um teor, em peso, ~    416660
 2 4011090 Outros leites e cremes, com um teor, em peso, de matérias ~     50856
 3 4012010 Leite UHT (Ultra High Temperature), com um teor, em peso, ~    914181
 4 4012090 Outros leites e cremes, com um teor, em peso, de matérias ~      6562
 5 4014010 Leite, com um teor, em peso, de matérias gordas, superior ~      1471
 6 4014021 Creme de leite UHT (Ultra High Temperature), com um teor, ~      5622
 7 4014029 Outros cremes de leite, com um teor, em peso, de matérias ~     21136
 8 4015010 Leite, com um teor, em peso, de matérias gordas, superior ~      9652
 9 4015021 Creme de leite UHT (Ultra High Temperature), com um teor, ~   1411301
10 4015029 Outros cremes de leite, com um teor, em peso, de matérias ~  13521548
# ... with 76 more rows
…
Agregando por UF

Provavelmente o estado que mais exporta deverá ser o de São Paulo. Vamos verificar em quanto:

expuf<-exp%>%
  group_by(SG_UF_NCM)%>%
  summarise(TotalExp_UF = sum(VL_FOB))

arrange(expuf, desc(TotalExp_UF))

# A tibble: 28 x 2
   SG_UF_NCM TotalExp_UF
   <chr>           <dbl>
 1 SP        38089963184
 2 MG        23524678657
 3 RJ        20657495915
 4 PA        18435688104
 5 MT        16836801328
 6 PR        15398571669
 7 RS        12850451844
 8 GO         7543823722
 9 SC         7448129046
10 BA         7099650968
# ... with 18 more rows

Podemos ver que tipo de produto cada estado mais exporta:

epufncm<-exp%>%
  group_by(SG_UF_NCM, CO_NCM)%>%
  summarise(TotExpUFNCM = sum(VL_FOB))

arrange(epufncm, desc(TotExpUFNCM))

# A tibble: 39,898 x 3
# Groups:   SG_UF_NCM [28]
   SG_UF_NCM   CO_NCM TotExpUFNCM
   <chr>        <int>       <dbl>
 1 RJ        27090010 14817344125
 2 PA        26011100 12391868283
 3 MG        26011100  8545999523
 4 MT        12019000  7601899031
 5 PR        12019000  4598847650
 6 SP        17011400  4056048259
 7 MG         9011110  3379526430
 8 MT        10059010  3037254813
 9 RS        12019000  2931053717
10 GO        12019000  2503019444
# ... with 39,888 more rows

Preciso substituir a coluna de códigos do NCM pelo nomes, para vermos o primeiro produto mais exportado por UF:

epufncm <- left_join(epufncm, ncm %>%
                             select(CO_NCM, NO_NCM_POR), by = c("CO_NCM" = "CO_NCM"))%>%
  select(-CO_NCM)

arrange(epufncm, desc(TotExpUFNCM))

# A tibble: 39,898 x 3
# Groups:   SG_UF_NCM [28]
   SG_UF_NCM TotExpUFNCM NO_NCM_POR                                             
   <chr>           <dbl> <chr>                                                  
 1 RJ        14817344125 Óleos brutos de petróleo                               
 2 PA        12391868283 Minérios de ferro e seus concentrados, exceto as pirit~
 3 MG         8545999523 Minérios de ferro e seus concentrados, exceto as pirit~
 4 MT         7601899031 Soja, mesmo triturada, exceto para semeadura           
 5 PR         4598847650 Soja, mesmo triturada, exceto para semeadura           
 6 SP         4056048259 Outros açúcares de cana                                
 7 MG         3379526430 Café não torrado, não descafeinado, em grão            
 8 MT         3037254813 Milho em grão, exceto para semeadura                   
 9 RS         2931053717 Soja, mesmo triturada, exceto para semeadura           
10 GO         2503019444 Soja, mesmo triturada, exceto para semeadura           
# ... with 39,888 more rows
…
Então agrupo as exportações (em US$ FOB) por NCM: (O agrupamento é necessário por uma questão de limitação de processamento e memória)

#agrupa exp por pais
exppais<-exp%>%
  group_by(CO_PAIS)%>%
  summarise(Total_PAIS = sum(VL_FOB))

arrange(exppais, desc(Total_PAIS))

# A tibble: 242 x 2
   CO_PAIS  Total_PAIS
     <int>       <dbl>
 1     160 63191994262
 2     249 19020221673
 3      63  7688407809
 4     573  6992638437
 5     245  3864919709
 6     399  3778187719
 7     149  3748719043
 8      23  3743852774
 9     158  3426770900
10     493  3411473261
# ... with 232 more rows
…
Vamos ver como fica a classificação:

exppais<-exppais%>%
  select(-Total_PAIS)

arrange(exppais,desc(TotExpPais))

# A tibble: 242 x 3
   CO_PAIS NO_PAIS                  TotExpPais
     <int> <chr>                         <dbl>
 1     160 China                   63191994262
 2     249 Estados Unidos          19020221673
 3      63 Argentina                7688407809
 4     573 Países Baixos (Holanda)  6992638437
 5     245 Espanha                  3864919709
 6     399 Japão                    3778187719
 7     149 Canadá                   3748719043
 8      23 Alemanha                 3743852774
 9     158 Chile                    3426770900
10     493 México                   3411473261
# ... with 232 more rows
…
Rows: 276
Columns: 2
$ CO_URF <int> 510353, 710251, 1010351, 1017504, 1017505, 510352, 317903, 9...
$ NO_URF <chr> "0510353 - IRF ILHEUS", "0710251 - IRF CAMPOS DOS GOYTACAZES...

Então agrupo as exportações (em US$ FOB) por código da receita federal: (O agrupamento é necessário por uma questão de limitação de processamento e memória)

#agrupa exp por pais
expurf<-exp%>%
  group_by(CO_URF)%>%
  summarise(Total_URF = sum(VL_FOB))

arrange(expurf, desc(Total_URF))

# A tibble: 74 x 2
    CO_URF   Total_URF
     <int>       <dbl>
 1  817800 55362316562
 2  317903 19682166723
 3  917800 16284312619
 4  717800 14662729832
 5 1017700  9798566262
 6  727600  9368236721
 7  817600  6546727372
 8  927800  6284456993
 9  217800  6214360009
10  710251  5354464173
# ... with 64 more rows
…
Vamos ver como fica a classificação:

expurf<-expurf%>%
  select(-Total_URF)

arrange(expurf,desc(TotExpUrf))

# A tibble: 74 x 3
    CO_URF NO_URF                                                     TotExpUrf
     <int> <chr>                                                          <dbl>
 1  817800 0817800 - PORTO DE SANTOS                                55362316562
 2  317903 0317903 - IRF SAO LUIS                                   19682166723
 3  917800 0917800 - PORTO DE PARANAGUA                             16284312619
 4  717800 0717800 - PORTO DE ITAGUAI                               14662729832
 5 1017700 1017700 - PORTO DE RIO GRANDE                             9798566262
 6  727600 0727600 - PORTO DE VITORIA                                9368236721
 7  817600 0817600 - AEROPORTO INTERNACIONAL DE SAO PAULO/GUARULHOS  6546727372
 8  927800 0927800 - ITAJAI                                          6284456993
 9  217800 0217800 - ALF - BELÉM                                     6214360009
10  710251 0710251 - IRF CAMPOS DOS GOYTACAZES                       5354464173
# ... with 64 more rows
…
