Comparando preços de estadias no Airbnb com o R
…
Resumindo: Tabelas de frequência

Cada observação em nosso conjunto de dados é uma sala ou quarto; portanto, sabemos que nossos dados contêm informações sobre 17651 quartos. Digamos que queremos saber quantos quartos existem por cidade:

airbnb%>%
group_by(city)%>% # Use a funcao group_by 
  #para agrupar o \textit{dataframe} do airbnb 
  #(fornecido pelo pipe na linha anterior) por cidade
summarise(nr_per_city = n(),.groups="drop") # Resuma este objeto agrupado

## # A tibble: 43 x 2
##    city        nr_per_city
##    <chr>             <int>
##  1 Aalst                74
##  2 Antwerpen          1610
##  3 Arlon                46
##  4 Ath                  47
##  5 Bastogne            145
##  6 Brugge             1094
##  7 Brussel            6715
##  8 Charleroi           118
##  9 Dendermonde          45
## 10 Diksmuide            27
## # ... with 33 more rows

#(fornecido pelo pipe na linha anterior): peca ao R para 
#criar uma nova variavel nr_per_city que possua o numero
#de observacoes em cada grupo (cidade)

Dizemos ao R para pegar o objeto airbnb, agrupá-lo por cidade e resumi-lo (summarise). O resumo que queremos é o número de observações por grupo. Nesse caso, as cidades formam os grupos. Os grupos sempre serão a primeira coluna em nossa saída. Obtemos o número de observações por grupo com a função n(). Esses números são armazenados em uma nova coluna denominada nr_per_city.

Como você pode ver, essas frequências são classificadas em ordem alfabética por cidade. Em vez disso, podemos classificá-los pelo número de quartos por cidade:

airbnb %>% 
  group_by(city) %>%
  summarise(nr_per_city = n(),.groups="drop") %>%
  arrange(nr_per_city) # Usa a funcao arrange para classificar em uma coluna selecionada

## # A tibble: 43 x 2
##    city         nr_per_city
##    <chr>              <int>
##  1 Tielt                 24
##  2 Diksmuide             27
##  3 Moeskroen             28
##  4 Roeselare             41
##  5 Eeklo                 43
##  6 Dendermonde           45
##  7 Arlon                 46
##  8 Ath                   47
##  9 Waremme               51
## 10 Sint-Niklaas          52
## # ... with 33 more rows

Só vamos visualizar melhor mudando a ordem, ou seja, mostrando a cidade com o menor número de quartos no topo. Para exibir a cidade com mais quartos no topo, classifique em ordem decrescente usando arrange(desc()):

airbnb %>% 
  group_by(city) %>%
  summarise(nr_per_city = n(),.groups="drop") %>%
  arrange(desc(nr_per_city)) # Classifica por ordem descendente

## # A tibble: 43 x 2
##    city            nr_per_city
##    <chr>                 <int>
##  1 Brussel                6715
##  2 Antwerpen              1610
##  3 Gent                   1206
##  4 Brugge                 1094
##  5 Liège                   667
##  6 Verviers                631
##  7 Oostende                527
##  8 Nivelles                505
##  9 Halle-Vilvoorde         471
## 10 Leuven                  434
## # ... with 33 more rows

Você verá que a capital Bruxelas tem mais quartos em oferta, seguidos por Antuérpia e Gent.

Observe que isso é muito parecido com trabalhar com a Tabela Dinâmica no Excel. Você poderia ter feito tudo isso no Excel, mas isso tem várias desvantagens, especialmente ao trabalhar com grandes conjuntos de dados como o nosso: você não tem registro do que clicou, de como classificou os dados e do que pode ter copiado ou excluído. No Excel, é mais fácil cometer erros acidentais sem perceber do que no R. No R, você tem seu script, para poder voltar e verificar todas as etapas de sua análise.

Nota: você também poderia ter feito isso sem o operador pipe (%\(>\)%):

airbnb.grouped <- group_by(airbnb, city)
airbnb.grouped.summary <- summarise(airbnb.grouped, nr_per_city = n(),.groups = "drop")
arrange(airbnb.grouped.summary, desc(nr_per_city))

## # A tibble: 43 x 2
##    city            nr_per_city
##    <chr>                 <int>
##  1 Brussel                6715
##  2 Antwerpen              1610
##  3 Gent                   1206
##  4 Brugge                 1094
##  5 Liège                   667
##  6 Verviers                631
##  7 Oostende                527
##  8 Nivelles                505
##  9 Halle-Vilvoorde         471
## 10 Leuven                  434
## # ... with 33 more rows
…
Queremos que isso seja classificado em ordem decrescente pelo preço médio. Além disso, agora queremos armazenar as frequências e médias em um objeto (na seção anterior, não armazenamos a tabela de frequências em um objeto):

airbnb.summary <- airbnb %>% # Armazena este resumo em um 
#objeto chamado airbnb.summary.
  group_by(city) %>%
  summarise(nr_per_city = n(), 
            average_price = mean(price),
            .groups="drop")  # Aqui informamos ao R para criar 
#outra variavel chamada average_price que nos fornece a media
#dos precos por grupo (city)
airbnb.summary%>%  
arrange(desc(average_price)) # Agora organiza por average_price

## # A tibble: 43 x 3
##    city          nr_per_city average_price
##    <chr>               <int>         <dbl>
##  1 Bastogne              145          181.
##  2 Philippeville          85          162.
##  3 Verviers              631          159.
##  4 Ieper                 143          151.
##  5 Waremme                51          150.
##  6 Dinant                286          144.
##  7 Oudenaarde            110          142.
##  8 Neufchâteau           160          141.
##  9 Ath                    47          134.
## 10 Tielt                  24          129.
## # ... with 33 more rows
…
Vamos calcular algumas estatísticas mais descritivas para ver se nosso palpite está correto:

airbnb %>%
  group_by(city) %>%
  summarise(nr_per_city = n(), 
            average_price = mean(price),
            median_price = median(price), # calcula a mediana dos
#precos por grupo (city). 
            max_price = max(price),.groups="drop") %>% # calcula o preco maximo 
#por grupo (city).
  arrange(desc(max_price),
          desc(median_price)) # ordena em descendente pela

## # A tibble: 43 x 5
##    city          nr_per_city average_price median_price max_price
##    <chr>               <int>         <dbl>        <dbl>     <dbl>
##  1 Brussel              6715          75.1           59      3536
##  2 Namur                 286         111.            65      2239
##  3 Huy                    99         125.            82      1982
##  4 Verviers              631         159.           105      1769
##  5 Oostende              527         102.            82      1769
##  6 Nivelles              505          94.1           71      1769
##  7 Philippeville          85         162.            89      1709
##  8 Bastogne              145         181.           100      1650
##  9 Oudenaarde            110         142.            89      1473
## 10 Antwerpen            1610          95.7           76      1473
## # ... with 33 more rows
…
airbnb.merged <- left_join(airbnb, population, by = c("city" = "place"))
# o primeiro argumento eh o conjunto de dados que queremos aumentar
# o segundo argumento eh onde encontramos os dados para aumentar
#o primeiro conjunto de dados com
# o terceiro argumento sao as variaveis que usamos para vincular 
#um conjunto de dados ao outro (cidade eh uma variavel no airbnb,
#local eh uma variavel na populacao)

Confira as colunas mais relevantes do dataframe airbnb.merged:

airbnb.merged %>% 
  select(room_id, city, price, population)

## # A tibble: 17,651 x 4
##    room_id  city     price population
##    <fct>    <chr>    <dbl>      <dbl>
##  1 5141135  Gent        59     231493
##  2 13128333 Brussel     53         NA
##  3 8298885  Brussel     46         NA
##  4 13822088 Oostende    56         NA
##  5 18324301 Brussel     47         NA
##  6 12664969 Brussel     60         NA
##  7 15452889 Gent        41     231493
##  8 3911778  Brussel     36         NA
##  9 14929414 Verviers    18      52824
## 10 8497852  Brussel     38         NA
## # ... with 17,641 more rows
…
Faltam dados para Bruxelas, no entanto. Isso ocorre porque Bruxelas está escrito em holandês no conjunto de dados airbnb, mas em inglês no conjunto de dados da *population}.

Vamos substituir Brussels por Brussel (nome da cidade de Bruxelas) no conjunto de dados da *population} (e também alterar a ortografia de duas outras cidades) e vincular os dados novamente:

population <- population %>% 
  mutate(place = replace(place, place == "Brussels", "Brussel"),
         place = replace(place, place == "Ostend", "Oostende"),
         place = replace(place, place == "Mouscron", "Moeskroen"))

airbnb.merged <- left_join(airbnb, population, by = c("city" = "place"))

airbnb.merged %>% 
  select(room_id, city, price, population)

## # A tibble: 17,651 x 4
##    room_id  city     price population
##    <fct>    <chr>    <dbl>      <dbl>
##  1 5141135  Gent        59     231493
##  2 13128333 Brussel     53    1019022
##  3 8298885  Brussel     46    1019022
##  4 13822088 Oostende    56      69011
##  5 18324301 Brussel     47    1019022
##  6 12664969 Brussel     60    1019022
##  7 15452889 Gent        41     231493
##  8 3911778  Brussel     36    1019022
##  9 14929414 Verviers    18      52824
## 10 8497852  Brussel     38    1019022
## # ... with 17,641 more rows

airbnb.merged

## # A tibble: 17,651 x 18
##    room_id host_id room_type city  neighborhood reviews overall_satisfa~
##    <fct>   <fct>   <chr>     <chr> <chr>          <dbl>            <dbl>
##  1 5141135 206769~ Shared r~ Gent  Gent               9              4.5
##  2 131283~ 460988~ Shared r~ Brus~ Schaarbeek         2             NA  
##  3 8298885 309243~ Shared r~ Brus~ Elsene            12              4  
##  4 138220~ 814404~ Shared r~ Oost~ Middelkerke       19              4.5
##  5 183243~ 142940~ Shared r~ Brus~ Anderlecht         5              5  
##  6 126649~ 688101~ Shared r~ Brus~ Koekelberg        28              5  
##  7 154528~ 991271~ Shared r~ Gent  Gent               2             NA  
##  8 3911778 3690027 Shared r~ Brus~ Elsene            13              4  
##  9 149294~ 306245~ Shared r~ Verv~ Baelen             2             NA  
## 10 8497852 405130~ Shared r~ Brus~ Etterbeek         57              4.5
## # ... with 17,641 more rows, and 11 more variables: accommodates <dbl>,
## #   bedrooms <dbl>, price <dbl>, name <chr>, latitude <dbl>, longitude <dbl>,
## #   rooms_per_host <dbl>, room_id_F <fct>, host_id_F <fct>,
## #   overall_satisfaction_100 <dbl>, population <dbl>
…
No script acima, primeiro criamos uma variável lógica (esse é outro tipo de variável; discutimos outras aqui). Chamamos essa variável de grande e é TRUE quando a população é maior que 100000 e FALSE, se não. Depois, criamos um novo tamanho de variável que é a fatoração de grande porte. Observe que adicionamos outro argumento à função factor, ou seja, labels, para fornecer os valores large de nomes mais intuitivos. FALSE vem em primeiro lugar no alfabeto e obtém o primeiro rótulo pequeno, *TRUE} fica em segundo lugar no alfabeto e obtém o segundo rótulo grande.

Para saber quais cidades são grandes e quais são pequenas, podemos solicitar frequências de combinações de tamanho (grande versus pequeno) e city (a própria cidade). Aprendemos como fazer isso no início desse tutorial (consulte as tabelas de frequência e as estatísticas descritivas):

airbnb %>% 
  group_by(size, city) %>% 
  summarise(count = n(), population = mean(population), .groups="drop") %>% # Cidades 
  #formam os grupos. Portanto, a populacao media de um grupo = a media
  #de observacoes com a mesma populacao, porque elas vem da mesma
  #cidade = a populacao da cidade
  arrange(desc(size), 
          desc(population)) # maior cidade no topo

## # A tibble: 43 x 4
##    size  city      count population
##    <fct> <chr>     <int>      <dbl>
##  1 large Brussel    6715    1019022
##  2 large Antwerpen  1610     459805
##  3 large Gent       1206     231493
##  4 large Charleroi   118     200132
##  5 large Liège       667     182597
##  6 large Brugge     1094     116709
##  7 large Namur       286     106284
##  8 small Leuven      434      92892
##  9 small Mons        129      91277
## 10 small Aalst        74      77534
## # ... with 33 more rows
…
