Redes econômicas: Teoria de Redes na Economia usando R
…
## # A tbl_graph: 6 nodes and 6 edges
## #
## # An undirected simple graph with 1 component
## #
## # A tibble: 6 × 1
##   name   
##   <chr>  
## 1 João   
## 2 Maria  
## 3 Douglas
## 4 Ana    
## 5 Paulo  
## 6 Sônia  
## #
## # A tibble: 6 × 2
##    from    to
##   <int> <int>
## 1     1     2
## 2     2     3
## 3     2     4
## # ℹ 3 more rows
…
