Escolhendo os melhores produtos para oferecer a seus clientes utilizando Análise Conjunta no R
…
  rename("Perfil" = "Observacoes") %>% # renomeia Observacoes para Perfil
  mutate(Perfil = factor(Perfil), 
         Respondente = factor(Respondente),  # fatorar identificadores
         Sabor = factor(Sabor), 
         Embalagem = factor(Embalagem), 
         Calorias = factor(Calorias), 
         Procedencia = factor(Procedencia)) # fatorar os atributos do sorvete

sorvetesxls

## # A tibble: 150 x 7
##    Perfil    Sabor     Embalagem      Calorias      Procedencia  Respondente  Nota
##    <fct>     <fct>     <fct>          <fct>         <fct>        <fct>       <dbl>
##  1 Perfil 1  Framboesa Waffle caseiro Convencional  Nao Organico Individuo 1     1
##  2 Perfil 2  Chocolate Cone           Convencional  Organico     Individuo 1     4
##  3 Perfil 3  Framboesa Tamanho        Baixa caloria Organico     Individuo 1     2
##  4 Perfil 4  Morango   Tamanho        Convencional  Organico     Individuo 1     7
##  5 Perfil 5  Morango   Cone           Baixa caloria Nao Organico Individuo 1     9
##  6 Perfil 6  Chocolate Waffle caseiro Convencional  Nao Organico Individuo 1     3
##  7 Perfil 7  Baunilha  Tamanho        Baixa caloria Nao Organico Individuo 1     5
##  8 Perfil 8  Manga     Waffle caseiro Baixa caloria Organico     Individuo 1    10
##  9 Perfil 9  Manga     Tamanho        Convencional  Nao Organico Individuo 1     6
## 10 Perfil 10 Baunilha  Waffle caseiro Convencional  Organico     Individuo 1     8
## # ... with 140 more rows
…
#respondente e depois por classificacao prevista

Vamos reter para cada indivíduo apenas seu perfil mais bem classificado. Podemos fazer isso agrupando por entrevistado e adicionando uma variável denominada ranking que nos dirá o ranking de perfis, com base na classificação prevista, para cada entrevistado:

maior_nota <- predict(conjunta_porrespondente, perfis.mercado) %>% 
  group_by(Respondente) %>% 
  mutate(ranking = rank(Prediction))

# dando uma olhada

maior_nota %>% 
  arrange(Respondente, ranking)

## # A tibble: 60 x 7
## # Groups:   Respondente [15]
##    Respondente  Sabor     Embalagem Calorias      Procedencia  Prediction ranking
##    <chr>        <fct>     <fct>     <fct>         <fct>             <dbl>   <dbl>
##  1 Individuo 1  Framboesa Tamanho   Convencional  Nao Organico     -0.700       1
##  2 Individuo 1  Framboesa Tamanho   Baixa caloria Organico          1.70        2
##  3 Individuo 1  Baunilha  Cone      Convencional  Nao Organico      6.3         3
##  4 Individuo 1  Manga     Cone      Baixa caloria Nao Organico      8.8         4
##  5 Individuo 10 Manga     Cone      Baixa caloria Nao Organico      3.70        1
##  6 Individuo 10 Baunilha  Cone      Convencional  Nao Organico      6.78        2
##  7 Individuo 10 Framboesa Tamanho   Baixa caloria Organico          9.05        3
##  8 Individuo 10 Framboesa Tamanho   Convencional  Nao Organico     10.0         4
##  9 Individuo 11 Manga     Cone      Baixa caloria Nao Organico      0.8         1
## 10 Individuo 11 Framboesa Tamanho   Convencional  Nao Organico      1.8         2
## # ... with 50 more rows
…
