Rodando um modelo de Análise Fatorial no R
…
Para diferenciarmos, partimos com a conceituação entre os métodos:

Análise de Componentes Principais (PCA) O PCA decompõe uma matriz de correlação com outras nas diagonais. A quantidade de variância é igual ao traço da matriz, a soma das diagonais ou o número de variáveis observadas na análise. PCA minimiza a soma da distância perpendicular quadrada ao eixo do componente. Os componentes são ininterpretáveis, por exemplo, nenhuma construção subjacente.

Os componentes principais extraídos são responsáveis por uma quantidade máxima de variância. A pontuação do componente é uma combinação linear de variáveis observadas ponderadas por vetores próprios.

Análise exploratória de fatores (EFA) decompõe uma matriz de correlação ajustada. As diagonais foram ajustadas para os fatores únicos. A quantidade de variância explicada é igual ao traço da matriz, a soma das diagonais ajustadas ou comunalidades. Os fatores são responsáveis pela variação comum em um conjunto de dados. As correlações múltiplas ao quadrado (SMC) são usadas como estimativas de comunalidade nas diagonais. As variáveis observadas são uma combinação linear dos fatores subjacentes e únicos.

O primeiro passo consiste na avaliação dos padrões de distribuição de probabilidades presentes nos dados:

library(tidyverse)
dados<-as_tibble(dados) #primeiro selecionamos as variaveis que queremos...
dados

## # A tibble: 30 x 9
##    Empresas    v1    v2    v3    v4    v5    v6    v7    v8
##    <chr>    <dbl> <dbl> <dbl> <dbl> <dbl> <dbl> <dbl> <dbl>
##  1 C1           4     1     2     2     2     4     1     3
##  2 C2           4     1     2     2     2     4     1     3
##  3 C3           2     2     1     3     1     3     2     4
##  4 C4           5     4     3     3     3     5     2     4
##  5 C5           4     2     3     3     1     3     2     4
##  6 C6           4     2     2     3     3     4     2     4
##  7 C7           5     3     3     4     5     5     4     5
##  8 C8           2     1     1     4     6     3     5     5
##  9 C9           3     2     1     3     3     5     2     4
## 10 C10          4     2     2     3     1     3     2     4
## # ... with 20 more rows
…
