Inferência Causal na Economia
…
rep(c(1,0),rep(3,2))

 1 1 1 0 0 0

tratamento <- rep(c(1,0), rep(length(electric$treated.Posttest),2))

tratamento <- factor(tratamento)

n <- length(post.test)

elec <- tibble(post.test, pre.test,grade,tratamento)

elec

# A tibble: 192 x 4
   post.test pre.test grade tratamento
       <dbl>    <dbl> <fct> <fct>     
 1      48.9     13.8 1     1         
 2      70.5     16.5 1     1         
 3      89.7     18.5 1     1         
 4      44.2      8.8 1     1         
 5      77.5     15.3 1     1         
 6      84.7     15   1     1         
 7      78.9     19.4 1     1         
 8      86.8     15   1     1         
 9      60.8     11.8 1     1         
10      75.7     16.4 1     1         
# ... with 182 more rows
…
