Análise do Perfil de Crédito de Clientes
…
Análise preliminar

Baixe o script .R e rode em seu RStudio localmente.

Em seguida conecto no Meu Drive:

#install.packages("googledrive")
library(googledrive)

Mostra os arquivos disponíveis no Meu Drive

drive_find(n_max=30) # Mostra os arquivos no Meu Drive

# A tibble: 30 x 3
   name                              id                          drive_resource 
 * <chr>                             <chr>                       <list>         
 1 Csvs                              1IJ7j91ViaUwqCBZofLUyjb6cE~ <named list [3~
 2 dados_analise_clientes_cred.CSV   1Ev48ZBpV6MkYBGSVnryyP9m-M~ <named list [3~
 3 Ferramenta de SEO Google Trends.~ 1dAYdSCMFc6a9oMq7Rrmz7aTmv~ <named list [4~
 4 Análise de Dados perfil de crédi~ 1b5eSq7tsWWJc1zz4C8_AgYMNf~ <named list [4~
 5 Colab Notebooks                   1UunmbFnPXPq4EwUHI4ezsN8UV~ <named list [3~
 6 categorias_gtrends                1YnHEINsnHZYg4teLIY4MSADbI~ <named list [3~
 7 subject                           1qK0k8F3pabQDrsQinqHybL6VF~ <named list [3~
 8 Tecnofit - Info Clientes (Tecnof~ 11I4wC3NM-ojC6hfk0P9aUNego~ <named list [3~
 9 PDI individual_ modelo            1EQ4_C1TO3Cm17Wc1DM8ubZQJ3~ <named list [3~
10 Tecnofit - Dados Análise Cliente~ 1384fSRZYjnrQ5n4SspA-oo1Nm~ <named list [3~
# ... with 20 more rows
…
Análise dos grupos

library(dplyr) # Biblioteca pra manipulação de dados

agrupa_alunos_ativos<-cred_clientes%>%
  group_by(cliente_nome)%>%
  summarise(qtd_alunos_ativos = sum(alunos_ativos, na.rm = TRUE))
agrupa_alunos_ativos%>%
  arrange(desc(qtd_alunos_ativos)) # Mostra a academia com mais alunos ativos no período

# A tibble: 499 x 2
   cliente_nome               qtd_alunos_ativos
   <chr>                                  <int>
 1 FIT COMPANY                            19032
 2 UPLAY FITNESS - GUARAPUAVA             16915
 3 ACADEMIA DUQUE DE CAXIAS               16154
 4 Academia Movimentacao                  15083
 5 World Gym                              14986
 6 UPLAY FITNESS - MARINGÁ                12375
 7 DOMINIO FITNESS                        12192
 8 WM FItness                             12110
 9 Academia Bio Fitness                   11590
10 ENERGYN ACADEMIA                       11212
# ... with 489 more rows
…
tmap # Treemap do número de alunos ativos no periodo todo

Vejamos agora o agrupamento por recebíveis:

agrupa_recebiveis<-cred_clientes%>%
  group_by(cliente_nome)%>%
  summarise(soma_recebiveis = sum(alunos_ativos, na.rm = TRUE))
agrupa_recebiveis%>%
  arrange(desc(soma_recebiveis)) # Mostra a academia com mais recebiveis ativos no período

# A tibble: 499 x 2
   cliente_nome               soma_recebiveis
   <chr>                                <int>
 1 FIT COMPANY                          19032
 2 UPLAY FITNESS - GUARAPUAVA           16915
 3 ACADEMIA DUQUE DE CAXIAS             16154
 4 Academia Movimentacao                15083
 5 World Gym                            14986
 6 UPLAY FITNESS - MARINGÁ              12375
 7 DOMINIO FITNESS                      12192
 8 WM FItness                           12110
 9 Academia Bio Fitness                 11590
10 ENERGYN ACADEMIA                     11212
# ... with 489 more rows
…
tmap_recebiveis # Treemap do volume de recebíveis no período

Agrupando e classificando as contas a pagar:

agrupa_conta_pagar<-cred_clientes%>%
  group_by(cliente_nome)%>%
  summarise(soma_conta_pagar = sum(total_conta_pagar, na.rm = TRUE))
agrupa_conta_pagar%>%
  arrange(desc(soma_conta_pagar)) # Mostra a academia com mais contas a pagar no período

# A tibble: 499 x 2
   cliente_nome                            soma_conta_pagar
   <chr>                                              <int>
 1 ACADEMIA ONE                                     2179330
 2 18 PHD SPORTS - AV. MARINGÁ - PINHAIS 3           666123
 3 04 PHD SPORTS - JOÃO NEGRÃO - CENTRO 5            240463
 4 ACADEMIA CLUB FITNESS CURITIBA                      4870
 5 01 PHD SPORTS - BACACHERI 945                          0
 6 02 PHD SPORTS - REBOUÇAS 940                           0
 7 03 PHD SPORTS - SANTA QUITÉRIA 902                     0
 8 05 PHD SPORTS - PORTÃO 2983                            0
 9 06 PHD SPORTS - FILIPINAS - CAJURU 181                 0
10 07 PHD SPORTS - PEDRO IVO - CENTRO 436                 0
# ... with 489 more rows
…
tmap_conta_pagar # Treemap das contas futuras empenhadas a pagar

Dos clientes selecionados que utilizam a máquina de cartão de crédito, agrupamos:

agrupa_cc_maquina<-cred_clientes%>%
  group_by(cliente_nome)%>%
  summarise(soma_cc_maquina = sum(total_valor_cartao_credito_maquina, na.rm = TRUE))
agrupa_cc_maquina%>%
  arrange(desc(soma_cc_maquina)) # Mostra a academia com mais uso de cartão de crédito máquina no período

# A tibble: 499 x 2
   cliente_nome               soma_cc_maquina
   <chr>                                <int>
 1 World Gym                          1586500
 2 FIT COMPANY                        1459913
 3 UPLAY FITNESS - GUARAPUAVA         1366618
 4 Acqua Fitness                       915011
 5 ACADEMIA MC SPORTS                  909106
 6 Academia Mahatma                    842335
 7 Academia Thai Brasil                784014
 8 ACADEMIA R2                         732715
 9 The Factory Gym                     641041
10 Academia Bio Fitness                625434
# ... with 489 more rows
…
tmap_cc_maquina # Treemap do uso de máquina de cartão de crédito como forma de recebimento

Agrupando por cartão de crédito recorrência temos:

agrupa_cc_recorrencia <- cred_clientes%>%
  group_by(cliente_nome)%>%
  summarise(soma_cc_recorrencia = sum(total_valor_cartao_credito_recorrencia, na.rm = TRUE))
agrupa_cc_recorrencia%>%
  arrange(desc(soma_cc_recorrencia)) # Mostra a academia com mais uso de cartão de crédito recorrencia no período

# A tibble: 499 x 2
   cliente_nome                                   soma_cc_recorrencia
   <chr>                                                        <int>
 1 CFP9 CasaShopping                                          1351952
 2 Academia Movimentacao                                      1247164
 3 ACADEMIA ONE                                                901899
 4 Dynamo 1                                                    881681
 5 UPLAY FITNESS - MARINGÁ                                     691210
 6 19 PHD SPORTS - LEOPOLDO JACOMEL - PINHAIS 495              607472
 7 3050 CrossFit                                               584766
 8 Santé Treinamento Funcional                                 536195
 9 ACADEMIA COLISEO                                            521242
10 Arbo Crossfit                                               461418
# ... with 489 more rows
…
