Previsão (forecasting) de séries temporais financeiras com o Facebook Prophet
…
A validação cruzada é obtida para avaliarmos a acurácia do prophet:

val_cruzada <- cross_validation(modelo_prophet, 30, units = "days") 

E mais objetivamente com as medidas de ajuste:

as_tibble(performance_metrics(val_cruzada, rolling_window = 0.01)) # Para os prox 30 dias

# A tibble: 30 x 8
   horizon   mse  rmse   mae   mape  mdape  smape coverage
   <drtn>  <dbl> <dbl> <dbl>  <dbl>  <dbl>  <dbl>    <dbl>
 1  1 days  3.77  1.94  1.34 0.0573 0.0375 0.0590    0.779
 2  2 days  3.50  1.87  1.31 0.0556 0.0411 0.0575    0.778
 3  3 days  3.44  1.85  1.33 0.0576 0.0424 0.0594    0.773
 4  4 days  3.72  1.93  1.37 0.0595 0.0402 0.0610    0.749
 5  5 days  4.28  2.07  1.47 0.0610 0.0421 0.0623    0.724
 6  6 days  4.30  2.07  1.47 0.0609 0.0436 0.0620    0.727
 7  7 days  5.07  2.25  1.59 0.0649 0.0471 0.0662    0.714
 8  8 days  5.82  2.41  1.69 0.0687 0.0512 0.0705    0.692
 9  9 days  5.70  2.39  1.62 0.0658 0.0416 0.0679    0.719
10 10 days  5.37  2.32  1.65 0.0680 0.0498 0.0698    0.702
# ... with 20 more rows
…
class(CORN)

[1] "tbl_ts"     "tbl_df"     "tbl"        "data.frame"

Utilizando o comando fill_gaps() droparemos os gaps implícitos repetindo nos dias faltantes a última cotação disponível.

library(tidyr)

CORN <- CORN %>%
  fill_gaps() %>%
  fill(c(CORN.Open, CORN.High, CORN.Low, CORN.Close, CORN.Volume, CORN.Adjusted), .direction = "down")
print(CORN)

# A tsibble: 4,027 x 7 [1D]
   index      CORN.Open CORN.High CORN.Low CORN.Close CORN.Volume CORN.Adjusted
   <date>         <dbl>     <dbl>    <dbl>      <dbl>       <dbl>         <dbl>
 1 2010-06-09      25.1      25.2     25.1       25.2        1700          25.2
 2 2010-06-10      25.5      25.5     25.5       25.5         200          25.5
 3 2010-06-11      25.9      25.9     25.8       25.8         500          25.8
 4 2010-06-12      25.9      25.9     25.8       25.8         500          25.8
 5 2010-06-13      25.9      25.9     25.8       25.8         500          25.8
 6 2010-06-14      26.0      26.1     26.0       26.1        2200          26.1
 7 2010-06-15      26.2      26.2     26.0       26.0        7000          26.0
 8 2010-06-16      26.3      26.4     26.2       26.3        2400          26.3
 9 2010-06-17      26.2      26.2     25.8       26.1        1600          26.1
10 2010-06-18      26.2      26.6     26.2       26.4        3100          26.4
# ... with 4,017 more rows
…
Em seguida soluciono o problema dos gaps implícitos:

treino <- treino %>%
  fill_gaps() %>%
  fill(c(CORN.Open, CORN.High, CORN.Low, CORN.Close, CORN.Volume, CORN.Adjusted), .direction = "down")
print(treino)

# A tsibble: 3,493 x 7 [1D]
   index      CORN.Open CORN.High CORN.Low CORN.Close CORN.Volume CORN.Adjusted
   <date>         <dbl>     <dbl>    <dbl>      <dbl>       <dbl>         <dbl>
 1 2010-06-09      25.1      25.2     25.1       25.2        1700          25.2
 2 2010-06-10      25.5      25.5     25.5       25.5         200          25.5
 3 2010-06-11      25.9      25.9     25.8       25.8         500          25.8
 4 2010-06-12      25.9      25.9     25.8       25.8         500          25.8
 5 2010-06-13      25.9      25.9     25.8       25.8         500          25.8
 6 2010-06-14      26.0      26.1     26.0       26.1        2200          26.1
 7 2010-06-15      26.2      26.2     26.0       26.0        7000          26.0
 8 2010-06-16      26.3      26.4     26.2       26.3        2400          26.3
 9 2010-06-17      26.2      26.2     25.8       26.1        1600          26.1
10 2010-06-18      26.2      26.6     26.2       26.4        3100          26.4
# ... with 3,483 more rows
…
