Forecasting de séries temporais com Vetores Auto Regressivos
…
# Retiro os gaps implícitos
#grupo <- grupo %>%
#  fill_gaps() %>%
#  fill(c(CORN.Close, ret_close, CORN.Volume, ret_volume), .direction = "down") %>% # Repete nos feriados e finais de semana a ultima cotacao
#grupo[-1,] # Retiro a primeira linha

print(grupo)

# A tsibble: 2,780 x 5 [1D] <UTC>
   index      CORN.Close ret_close CORN.Volume ret_volume
   <date>          <dbl>     <dbl>       <dbl>      <dbl>
 1 2010-06-09       25.2  NA              1700     NA    
 2 2010-06-10       25.5   0.0123          200     -2.14 
 3 2010-06-11       25.8   0.0129          500      0.916
 4 2010-06-14       26.1   0.0123         2200      1.48 
 5 2010-06-15       26.0  -0.00538        7000      1.16 
 6 2010-06-16       26.3   0.0134         2400     -1.07 
 7 2010-06-17       26.1  -0.00916        1600     -0.405
 8 2010-06-18       26.4   0.0118         3100      0.661
 9 2010-06-21       26.0  -0.0157         9500      1.12 
10 2010-06-22       25.7  -0.0112        28700      1.11 
# ... with 2,770 more rows
…
